<svg xmlns="http://www.w3.org/2000/svg" xmlns:xlink="http://www.w3.org/1999/xlink" version="1.1" id="Capa_1" x="0px" y="0px" viewBox="0 0 459 459" style="enable-background:new 0 0 459 459;" xml:space="preserve">
<g>
	<g id="location">
		<polygon points="0,229.5 229.5,229.5 229.5,459 255,459 459,0 0,204   "/>
	</g>
</g>
</svg>